Artificial intelligence and computer vision in the automatic recognition of plant species: a scientometric review
…
Revision

Loading and analyzing database structure

(data <- read_delim("dadostriagem2.0.csv", 
                    delim = ";", escape_double = FALSE, trim_ws = TRUE))

## # A tibble: 566 × 15
##        N article                      author  year LINK  morphological_struct…¹ extracted_features extraction_techniques
##    <dbl> <chr>                        <chr>  <dbl> <chr> <chr>                  <chr>              <chr>                
##  1     1 Fruit Plant Leaf Identifica… ADAM …  2019 http… Leave                  Shape              Zernike Moments (ZM) 
##  2     2 Leaves Classification Using… ADINU…  2018 http… Leave                  Shape              Shape features       
##  3     3 Optimized Sequential model … AGGAR…  2021 http… Leave                  Shape              Shape features       
##  4     4 Ayurvedic Medicinal Plants … AHILA…  2021 http… Leave                  Representations    Convolutional Neural…
##  5     5 Leaf identification using r… AHMED…  2020 http… Leave                  Shape              Shape features       
##  6     6 CNN-based Leaf Image Classi… AKTER…  2020 http… Leave                  Representations    Convolutional Neural…
##  7     7 Plant Leaf Recognition Usin… ALAMO…  2020 http… Leave                  Texture            Gray level cooccurre…
##  8     8 A Leaf Recognition Approach… ALI R…  2018 http… Leave                  Texture            Bag of Features (BOG)
##  9     9 Multi-Organ Plant Classific… ALI A…  2022 http… Multiple plant organs  Representations    Convolutional Neural…
## 10    10 An Improved Deep Neural Net… ALIMB…  2019 http… Whole plants           Representations    Convolutional Neural…
## # ℹ 556 more rows
## # ℹ abbreviated name: ¹​morphological_structure
## # ℹ 7 more variables: classification_techniques <chr>, accuracy <dbl>, Life_forms <chr>, data_set <chr>,
## #   country_of_origin <chr>, base_name <chr>, link_base <chr>
…
